<?xml version="1.0" encoding="UTF-8" standalone="no"?>
<svg
   xmlns:dc="http://purl.org/dc/elements/1.1/"
   xmlns:cc="http://creativecommons.org/ns#"
   xmlns:rdf="http://www.w3.org/1999/02/22-rdf-syntax-ns#"
   xmlns:svg="http://www.w3.org/2000/svg"
   xmlns="http://www.w3.org/2000/svg"
   xmlns:sodipodi="http://sodipodi.sourceforge.net/DTD/sodipodi-0.dtd"
   xmlns:inkscape="http://www.inkscape.org/namespaces/inkscape"
   width="24"
   height="24"
   viewBox="0 0 24 24"
   version="1.1"
   id="svg3684"
   sodipodi:docname="dilate.svg"
   inkscape:version="0.92.0 r15299">
  <metadata
     id="metadata3690">
    <rdf:RDF>
      <cc:Work
         rdf:about="">
        <dc:format>image/svg+xml</dc:format>
        <dc:type
           rdf:resource="http://purl.org/dc/dcmitype/StillImage" />
        <dc:title></dc:title>
      </cc:Work>
    </rdf:RDF>
  </metadata>
  <defs
     id="defs3688" />
  <sodipodi:namedview
     pagecolor="#ffffff"
     bordercolor="#666666"
     borderopacity="1"
     objecttolerance="10"
     gridtolerance="10"
     guidetolerance="10"
     inkscape:pageopacity="0"
     inkscape:pageshadow="2"
     inkscape:window-width="1252"
     inkscape:window-height="928"
     id="namedview3686"
     showgrid="true"
     inkscape:zoom="16"
     inkscape:cx="4.3284652"
     inkscape:cy="8.5694787"
     inkscape:window-x="162"
     inkscape:window-y="65"
     inkscape:window-maximized="0"
     inkscape:current-layer="svg3684"
     showguides="false">
    <inkscape:grid
       type="xygrid"
       id="grid3788"
       snapvisiblegridlinesonly="false"
       enabled="true"
       visible="true" />
  </sodipodi:namedview>
  <path
     d="M0 0h24v24H0z"
     fill="none"
     id="path3680" />
  <path
     style="color:#000000;font-style:normal;font-variant:normal;font-weight:normal;font-stretch:normal;font-size:medium;line-height:normal;font-family:sans-serif;font-variant-ligatures:normal;font-variant-position:normal;font-variant-caps:normal;font-variant-numeric:normal;font-variant-alternates:normal;font-feature-settings:normal;text-indent:0;text-align:start;text-decoration:none;text-decoration-line:none;text-decoration-style:solid;text-decoration-color:#000000;letter-spacing:normal;word-spacing:normal;text-transform:none;writing-mode:lr-tb;direction:ltr;text-orientation:mixed;dominant-baseline:auto;baseline-shift:baseline;text-anchor:start;white-space:normal;shape-padding:0;clip-rule:nonzero;display:inline;overflow:visible;visibility:visible;opacity:1;isolation:auto;mix-blend-mode:normal;color-interpolation:sRGB;color-interpolation-filters:linearRGB;solid-color:#000000;solid-opacity:1;vector-effect:none;fill:#000000;fill-opacity:1;fill-rule:nonzero;stroke:none;stroke-width:0.90350789px;stroke-linecap:butt;stroke-linejoin:miter;stroke-miterlimit:4;stroke-dasharray:none;stroke-dashoffset:0;stroke-opacity:1;color-rendering:auto;image-rendering:auto;shape-rendering:auto;text-rendering:auto;enable-background:accumulate"
     d="M 12,9 V 9.3571429 11 h -2 v 1 h 2 v 2 h 1 v -2 h 2 V 11 H 13 V 9 Z"
     id="path3790"
     inkscape:connector-curvature="0"
     sodipodi:nodetypes="cccccccccccccc" />
  <path
     style="fill:none;stroke:#000000;stroke-width:1;stroke-linecap:butt;stroke-linejoin:miter;stroke-opacity:1;stroke-miterlimit:4;stroke-dasharray:1,1;stroke-dashoffset:0"
     d="M 3.6322263,5.265943 C 5.6751643,2.330035 10.528533,1.6390746 14,2.500508 c 3.055149,0.7581254 5.995138,3.4107827 6.928078,6.417162 1.033193,3.329447 0.146649,7.719945 -2.301366,10.201866 C 16.427408,21.349303 12.5777,21.494414 9.4906258,21.312962 7.1214454,21.173707 4.141375,20.36073 3.0655939,18.245287 2.0847768,16.316582 4.1585396,14.025643 4.256061,11.864072 4.3556293,9.6571319 2.3704034,7.0793099 3.6322263,5.265943 Z"
     id="path3794"
     inkscape:connector-curvature="0"
     sodipodi:nodetypes="aaaasaaa"
     inkscape:transform-center-x="7.3798112"
     inkscape:transform-center-y="-8.5557128" />
  <path
     style="fill:none;stroke:#000000;stroke-width:1;stroke-linecap:butt;stroke-linejoin:miter;stroke-opacity:1;stroke-miterlimit:4;stroke-dasharray:none"
     d="M 10.548828,4.1679688 C 7.4957554,3.9081797 3.4237852,6.2331219 5.9433594,9.5957031 7.7208709,12.453894 3.626869,15.666553 5.4550781,18.044922 10.656149,21.124392 20.279662,19.345675 19.347656,11.609375 19.372745,7.1356488 14.838665,3.7138936 10.548828,4.1679688 Z"
     id="path3794-4"
     inkscape:connector-curvature="0" />
</svg>
