<?xml version="1.0" encoding="UTF-8" standalone="no"?>
<svg
   xmlns:dc="http://purl.org/dc/elements/1.1/"
   xmlns:cc="http://creativecommons.org/ns#"
   xmlns:rdf="http://www.w3.org/1999/02/22-rdf-syntax-ns#"
   xmlns:svg="http://www.w3.org/2000/svg"
   xmlns="http://www.w3.org/2000/svg"
   xmlns:sodipodi="http://sodipodi.sourceforge.net/DTD/sodipodi-0.dtd"
   xmlns:inkscape="http://www.inkscape.org/namespaces/inkscape"
   fill="#000000"
   height="24"
   viewBox="0 0 24 24"
   width="24"
   version="1.1"
   id="svg4199"
   sodipodi:docname="ic_cached_black_24px.svg"
   inkscape:version="0.92.0 r15299">
  <metadata
     id="metadata4205">
    <rdf:RDF>
      <cc:Work
         rdf:about="">
        <dc:format>image/svg+xml</dc:format>
        <dc:type
           rdf:resource="http://purl.org/dc/dcmitype/StillImage" />
        <dc:title></dc:title>
      </cc:Work>
    </rdf:RDF>
  </metadata>
  <defs
     id="defs4203" />
  <sodipodi:namedview
     pagecolor="#ffffff"
     bordercolor="#666666"
     borderopacity="1"
     objecttolerance="10"
     gridtolerance="10"
     guidetolerance="10"
     inkscape:pageopacity="0"
     inkscape:pageshadow="2"
     inkscape:window-width="1920"
     inkscape:window-height="1017"
     id="namedview4201"
     showgrid="true"
     inkscape:zoom="27.812867"
     inkscape:cx="25.845372"
     inkscape:cy="10.514953"
     inkscape:window-x="-8"
     inkscape:window-y="-8"
     inkscape:window-maximized="1"
     inkscape:current-layer="svg4199">
    <inkscape:grid
       type="xygrid"
       id="grid4211" />
  </sodipodi:namedview>
  <path
     d="m 19,5 -4,4 h 3 c 0,3.31 -2.69,6 -6,6 -1.01,0 -1.97,-0.25 -2.8,-0.7 L 7.74,15.76 C 8.97,16.54 10.43,17 12,17 c 4.42,0 8,-3.58 8,-8 h 3 z M 6,9 c 0,-3.31 2.69,-6 6,-6 1.01,0 1.97,0.25 2.8,0.7 L 16.26,2.24 C 15.03,1.46 13.57,1 12,1 7.58,1 4,4.58 4,9 H 1 l 4,4 4,-4 z"
     id="path4195"
     inkscape:connector-curvature="0" />
  <path
     d="M0 0h24v24H0z"
     fill="none"
     id="path4197" />
  <text
     xml:space="preserve"
     style="font-style:normal;font-weight:normal;font-size:40px;line-height:25px;font-family:sans-serif;letter-spacing:0px;word-spacing:0px;fill:#000000;fill-opacity:1;stroke:none"
     x="11.070473"
     y="22.925566"
     id="text4209"><tspan
       sodipodi:role="line"
       id="tspan4207"
       x="11.070473"
       y="22.925566"
       style="font-style:normal;font-variant:normal;font-weight:bold;font-stretch:normal;font-size:8px;line-height:25px;font-family:sans-serif;-inkscape-font-specification:'sans-serif Bold'">3D</tspan></text>
</svg>
