<?xml version="1.0" encoding="UTF-8" standalone="no"?>
<svg
   xmlns:dc="http://purl.org/dc/elements/1.1/"
   xmlns:cc="http://creativecommons.org/ns#"
   xmlns:rdf="http://www.w3.org/1999/02/22-rdf-syntax-ns#"
   xmlns:svg="http://www.w3.org/2000/svg"
   xmlns="http://www.w3.org/2000/svg"
   xmlns:sodipodi="http://sodipodi.sourceforge.net/DTD/sodipodi-0.dtd"
   xmlns:inkscape="http://www.inkscape.org/namespaces/inkscape"
   fill="#000000"
   height="48"
   viewBox="0 0 24 24"
   width="48"
   version="1.1"
   id="svg4128"
   sodipodi:docname="ic_replay_10_black_24px.svg"
   inkscape:version="0.92.0 r15299">
  <metadata
     id="metadata4132">
    <rdf:RDF>
      <cc:Work
         rdf:about="">
        <dc:format>image/svg+xml</dc:format>
        <dc:type
           rdf:resource="http://purl.org/dc/dcmitype/StillImage" />
        <dc:title></dc:title>
      </cc:Work>
    </rdf:RDF>
  </metadata>
  <sodipodi:namedview
     pagecolor="#ffffff"
     bordercolor="#666666"
     borderopacity="1"
     objecttolerance="10"
     gridtolerance="10"
     guidetolerance="10"
     inkscape:pageopacity="0"
     inkscape:pageshadow="2"
     inkscape:window-width="640"
     inkscape:window-height="480"
     id="namedview4130"
     showgrid="false"
     inkscape:zoom="4.9166667"
     inkscape:cx="26.496451"
     inkscape:cy="16.864671"
     inkscape:window-x="577"
     inkscape:window-y="186"
     inkscape:window-maximized="0"
     inkscape:current-layer="svg4128" />
  <defs
     id="defs4124">
    <path
       d="M0 0h24v24H0V0z"
       id="a" />
  </defs>
  <path
     d="M 12,5 V 1 l 5,5 -5,5 V 7 c -3.3,0 -6,2.7 -6,6 0,3.3 2.7,6 6,6 3.3,0 6,-2.7 6,-6 h 2 c 0,4.4 -3.6,8 -8,8 C 7.6,21 4,17.4 4,13 4,8.6 7.6,5 12,5 Z"
     id="path4126"
     inkscape:connector-curvature="0"
     sodipodi:nodetypes="cccccssccssc" />
  <path
     style="stroke-width:1"
     inkscape:connector-curvature="0"
     d="M 10.9,16 H 10 V 12.7 L 9,13 v -0.7 l 1.8,-0.6 h 0.1 z m 4.3,-1.8 c 0,0.3 0,0.6 -0.1,0.8 l -0.3,0.6 c 0,0 -0.3,0.3 -0.5,0.3 -0.2,0 -0.4,0.1 -0.6,0.1 -0.2,0 -0.4,0 -0.6,-0.1 -0.2,-0.1 -0.3,-0.2 -0.5,-0.3 -0.2,-0.1 -0.2,-0.3 -0.3,-0.6 -0.1,-0.3 -0.1,-0.5 -0.1,-0.8 v -0.7 c 0,-0.3 0,-0.6 0.1,-0.8 l 0.3,-0.6 c 0,0 0.3,-0.3 0.5,-0.3 0.2,0 0.4,-0.1 0.6,-0.1 0.2,0 0.4,0 0.6,0.1 0.2,0.1 0.3,0.2 0.5,0.3 0.2,0.1 0.2,0.3 0.3,0.6 0.1,0.3 0.1,0.5 0.1,0.8 z m -0.9,-0.8 v -0.5 c 0,0 -0.1,-0.2 -0.1,-0.3 0,-0.1 -0.1,-0.1 -0.2,-0.2 -0.1,-0.1 -0.2,-0.1 -0.3,-0.1 -0.1,0 -0.2,0 -0.3,0.1 l -0.2,0.2 c 0,0 -0.1,0.2 -0.1,0.3 v 2 c 0,0 0.1,0.2 0.1,0.3 0,0.1 0.1,0.1 0.2,0.2 0.1,0.1 0.2,0.1 0.3,0.1 0.1,0 0.2,0 0.3,-0.1 l 0.2,-0.2 c 0,0 0.1,-0.2 0.1,-0.3 z"
     id="path4126-3"
     sodipodi:nodetypes="ccccccccsscsssssssscsssssssccsssscscssssasc" />
</svg>
