<?xml version="1.0" encoding="UTF-8" standalone="no"?>
<svg
   xmlns:dc="http://purl.org/dc/elements/1.1/"
   xmlns:cc="http://creativecommons.org/ns#"
   xmlns:rdf="http://www.w3.org/1999/02/22-rdf-syntax-ns#"
   xmlns:svg="http://www.w3.org/2000/svg"
   xmlns="http://www.w3.org/2000/svg"
   xmlns:sodipodi="http://sodipodi.sourceforge.net/DTD/sodipodi-0.dtd"
   xmlns:inkscape="http://www.inkscape.org/namespaces/inkscape"
   width="24"
   height="24"
   viewBox="0 0 24 24"
   version="1.1"
   id="svg3684"
   sodipodi:docname="baseline-business-wireframe-24px.svg"
   inkscape:version="0.92.0 r15299">
  <metadata
     id="metadata3690">
    <rdf:RDF>
      <cc:Work
         rdf:about="">
        <dc:format>image/svg+xml</dc:format>
        <dc:type
           rdf:resource="http://purl.org/dc/dcmitype/StillImage" />
        <dc:title></dc:title>
      </cc:Work>
    </rdf:RDF>
  </metadata>
  <defs
     id="defs3688" />
  <sodipodi:namedview
     pagecolor="#ffffff"
     bordercolor="#666666"
     borderopacity="1"
     objecttolerance="10"
     gridtolerance="10"
     guidetolerance="10"
     inkscape:pageopacity="0"
     inkscape:pageshadow="2"
     inkscape:window-width="1252"
     inkscape:window-height="928"
     id="namedview3686"
     showgrid="true"
     inkscape:zoom="8"
     inkscape:cx="21.904929"
     inkscape:cy="16.983542"
     inkscape:window-x="162"
     inkscape:window-y="65"
     inkscape:window-maximized="0"
     inkscape:current-layer="svg3684"
     showguides="false">
    <inkscape:grid
       type="xygrid"
       id="grid3788"
       snapvisiblegridlinesonly="false"
       enabled="true"
       visible="true" />
  </sodipodi:namedview>
  <path
     d="M0 0h24v24H0z"
     fill="none"
     id="path3680" />
  <path
     style="fill:none;stroke:#000000;stroke-width:1;stroke-linecap:butt;stroke-linejoin:miter;stroke-opacity:1;stroke-miterlimit:4;stroke-dasharray:none"
     d="M 10.548828,4.1679688 C 7.4957554,3.9081797 3.4237852,6.2331219 5.9433594,9.5957031 7.7208709,12.453894 3.626869,15.666553 5.4550781,18.044922 10.656149,21.124392 20.279662,19.345675 19.347656,11.609375 19.372745,7.1356488 14.838665,3.7138936 10.548828,4.1679688 Z"
     id="path3794-4"
     inkscape:connector-curvature="0" />
  <path
     style="fill:none;stroke:#000000;stroke-width:1;stroke-linecap:butt;stroke-linejoin:miter;stroke-miterlimit:4;stroke-dasharray:1, 1;stroke-dashoffset:0;stroke-opacity:1"
     d="M 11.042969,6.1347656 C 8.0611056,5.5893199 2.7496815,9.6216689 5,12 c 1.3490518,2.820893 -0.2611897,10.062209 5,10 2.92326,0.950554 4.861787,-3.084089 6.855358,-7.451912 C 18.534813,10.868478 20.706928,7.0249867 19,5 17.764099,3.5038282 12.991804,6.0451359 11.042969,6.1347656 Z"
     id="path3794-7"
     inkscape:connector-curvature="0"
     sodipodi:nodetypes="cccscc" />
  <text
     xml:space="preserve"
     style="font-style:normal;font-weight:normal;font-size:40px;line-height:25px;font-family:sans-serif;letter-spacing:0px;word-spacing:0px;fill:#000000;fill-opacity:1;stroke:none"
     x="9"
     y="15.125"
     id="text4649"><tspan
       sodipodi:role="line"
       id="tspan4647"
       x="9"
       y="15.125"
       style="font-size:8px">D</tspan></text>
</svg>
