<svg width="24" height="24" xmlns="http://www.w3.org/2000/svg" >
 <path d="M0 0h24v24H0z" fill="none"/>
 <g stroke-width=".4">
  <path d="M2 18v1h4v-1zM7 18v1h4v-1zM12 18v1h4v-1zM17 18v1h4v-1z"/>
 </g>
 <g transform="matrix(1.3 0 0 1.3 -2.7 -5.1)" >
  <path d="M11 17H9l2.4-6S9 10.1 9.8 7.6c.8-2.1 2.2-2 3.2-1.6.5.1 2 1 2 1z" stroke-width=".4" id="a"/>
 </g>
 <path d="M2 14.4c-1.2 1-.7 2-.7 2L16.1 12s.9 3.4 4.2 2.5c2.9-.7 2.8-2.6 2.5-4-.1-.6-1-2.6-1-2.6S3.5 12.9 2 14.4z"/>
</svg>
