solid ascii
 facet normal -1 0 0
  outer loop
   vertex -2 -0.75 -0.1
   vertex -2 -0.75 0
   vertex -2 0.75 -0.1
  endloop
 endfacet
 facet normal -1 0 0
  outer loop
   vertex -2 0.75 0
   vertex -2 0.75 -0.1
   vertex -2 -0.75 0
  endloop
 endfacet
 facet normal 1 0 0
  outer loop
   vertex 2 -0.75 -0.1
   vertex 2 0.75 -0.1
   vertex 2 -0.75 0
  endloop
 endfacet
 facet normal 1 -0 0
  outer loop
   vertex 2 0.75 0
   vertex 2 -0.75 0
   vertex 2 0.75 -0.1
  endloop
 endfacet
 facet normal 0 -1 0
  outer loop
   vertex -2 -0.75 -0.1
   vertex 2 -0.75 -0.1
   vertex -2 -0.75 0
  endloop
 endfacet
 facet normal 0 -1 0
  outer loop
   vertex 2 -0.75 0
   vertex -2 -0.75 0
   vertex 2 -0.75 -0.1
  endloop
 endfacet
 facet normal 0 1 0
  outer loop
   vertex -2 0.75 -0.1
   vertex -2 0.75 0
   vertex 2 0.75 -0.1
  endloop
 endfacet
 facet normal 0 1 -0
  outer loop
   vertex 2 0.75 0
   vertex 2 0.75 -0.1
   vertex -2 0.75 0
  endloop
 endfacet
 facet normal 0 0 -1
  outer loop
   vertex -2 -0.75 -0.1
   vertex -2 0.75 -0.1
   vertex 2 -0.75 -0.1
  endloop
 endfacet
 facet normal 0 0 -1
  outer loop
   vertex 2 0.75 -0.1
   vertex 2 -0.75 -0.1
   vertex -2 0.75 -0.1
  endloop
 endfacet
 facet normal 0 0 1
  outer loop
   vertex -2 -0.75 0
   vertex 2 -0.75 0
   vertex -2 0.75 0
  endloop
 endfacet
 facet normal -0 0 1
  outer loop
   vertex 2 0.75 0
   vertex -2 0.75 0
   vertex 2 -0.75 0
  endloop
 endfacet
endsolid
