****calcul
 ***mesh
  **file meshfile0.geof
 ***linear_solver mumps
 ***resolution
  **sequence
   *algorithm p1p2p3
   *time 1.
   *increment 1
   *ratio 1.e-2
 ***bc
  **impose_nodal_dof
    x0 U1 0.
    x0 U2 0.
    x0 U3 0.
    x1 U1 .1 time
    x1 U2 0. time
    x1 U3 0. time
 ***material
   *file cube.mat
***output
# **output_first
****return

****post_processing

***local_post_processing
  **file node
  **process function
    *output ener
    *expression sig11*eto11+ sig12*eto12 + sig31*eto31 + sig12*eto12+ sig22*eto22 + sig23*eto23 + sig31*eto31+ sig23*eto23 + sig33*eto33;

***local_post_processing
 **file integ
 **elset ALL_ELEMENT
  **process function
    *output enerinteg
    *expression sig11*eto11+ sig12*eto12 + sig31*eto31 + sig12*eto12+ sig22*eto22 + sig23*eto23 + sig31*eto31+ sig23*eto23 + sig33*eto33;

***global_post_processing
 **file integ
 **elset ALL_ELEMENT
 **process volume


***global_post_processing
 **file node
 **nset ALL_NODE
 **process average
  *list_var ener

***global_post_processing
 **file integ
 **elset ALL_ELEMENT
 **process average
  *list_var enerinteg


****return
